<?xml version="1.0" encoding="UTF-8"?>
<svg viewBox="0 0 24 24" xmlns="http://www.w3.org/2000/svg">
<rect fill="#0a0" width="24" height="24" ry="1.5" />
<rect style="fill:none;stroke:#f7f7f7;stroke-width:1.6" width="15.8" height="6.6" x="2.3" y="3.6" ry="0.5" />
<g fill="#f7f7f7">
<circle cx="6" cy="6.9" r="1.7" />
<circle cx="6" cy="17.1" r="1.7" />
<path d="M 12.29,14.62 H 3.09 v 4.96 h 9.05 c 0.31,0.72 0.66,1.15 1.08,1.6 H 2.68 C 2.2,21.2 1.5,20.74 1.5,19.86 v -5.46 C 1.47,13.63 2.03,12.98 2.87,13 h 10.7 c -0.6,0.51 -0.97,1 -1.27,1.62 z" />
<path stroke="#f7f7f7" stroke-width="1" stroke-linejoin="round" d="m 20.4,17.1 -2.3,1.33 -2.3,1.33 v -2.66 -2.66 l 2.3,1.33 z" />
</g>
</svg>
