<?xml version="1.0" encoding="UTF-8"?>
<svg xmlns="http://www.w3.org/2000/svg" version="1.1" viewBox="0 0 64 64">
<rect width="64" height="64" ry="4" fill="#ff6000" />
<path fill="#f7f7f7" d="m58.136 32.806c-0.488-0.778-2.783-4.284-6.66-7.81-5.777-5.251-12.338-8.027-18.977-8.027-6.638 0-13.2 2.776-18.977 8.027-4.304 3.912-6.659 7.801-6.758 7.964-0.008 0.013-0.0117 0.023-0.019 0.036-0.358 0.627-0.317 1.415 0.125 2.004 0.099 0.132 2.48 3.277 6.806 6.423 5.749 4.182 12.258 6.392 18.822 6.392 6.565 0 13.073-2.21 18.823-6.391 4.326-3.146 6.707-6.291 6.807-6.423 0.489-0.652 0.49191-1.548 0.009-2.195zm-9.2-5.169c2.108 1.905 3.718 3.829 4.763 5.209-0.815 0.143-1.851 0.256-3.096 0.256-4.348 0-9.147-1.297-14.265-3.856-4.729-2.365-9.313-3.563-13.625-3.563-1.8348 0-3.506 0.216-5.020 0.57 4.675-3.73 9.647-5.621 14.807-5.621 5.763-1.75e-4 11.294 2.357 16.437 7.005zm-16.249 16.513c-0.045 7e-4 -0.089 0.001-0.133 0.001-5.383 0-9.983-4.296-10.286-9.638-0.101-1.782 0.268-3.58 1.045-5.158 2.582 0.077 5.299 0.657 8.117 1.727-1.14 0.432-1.952 1.531-1.952 2.822 0 1.668 1.352 3.020 3.020 3.020 1.668 0 3.021-1.352 3.021-3.02 0-0.383-0.074-0.747-0.204-1.084 2.489 1.204 4.921 2.135 7.284 2.789-0.836 4.717-5.121 8.48-9.911 8.543zm-21.911-10.198c1.375-1.31 4.202-3.477 8.48-4.288-0.514 1.623-0.74 3.345-0.643 5.055 0.140 2.483 0.963 4.8 2.277 6.773-1.691-0.805-3.347-1.791-4.963-2.958-2.397-1.730-4.148-3.48-5.151-4.582zm38.294 4.582c-1.616 1.166-3.271 2.153-4.962 2.958 1.006-1.522 1.727-3.247 2.0718-5.097 1.508 0.243 2.985 0.368 4.423 0.368h3.51e-4c0.249 0 0.491-0.004 0.727-0.011-0.672 0.578-1.427 1.181-2.26 1.782z" />
</svg>
